[
  {
    "comment": "Initially we thought our website was going be just to validate us as a company. But what it did actually was save a bunch of time by implementing different tools that we didn’t even know we could use a website for.",
    "author": "John Bender",
    "id": "author1",
    "img": "testimonials/testimonial-photos-1.jpg",
    "altText": "Testimonial 1",
    "isActive": false
  },
  {
    "comment": "When you choose CEDRICMedia you get a wonderful, professional team with innovative ideas, awesome customer service, and exactly what you&rsquo;re looking for. CEDRICMedia took the ideas that we had and put them perfectly on the web.",
    "author": "Alicia Shane",
    "id": "author2",
    "img": "testimonials/testimonial-photos-2.jpg",
    "altText": "Testimonial 2",
    "isActive": false
  },
  {
    "comment": "Please make sure that you thank everyone at CEDRICMedia for all of the work they have done, we are very happy with everything and will be recommending your services to anyone that will listen. Pass it on please.",
    "author": "Jack Son",
    "id": "author3",
    "img": "testimonials/testimonial-photos-3.jpg",
    "altText": "Testimonial 3",
    "isActive": true
  },
  {
    "comment": "I cannot begin to thank the crew at CEDRICMedia for the amazing work they did! I could have never imagined it would have looked so incredible and functioned so well!",
    "author": "Jessica Nisi Vel",
    "id": "author4",
    "img": "testimonials/testimonial-photos-4.jpg",
    "altText": "Testimonial 4",
    "isActive": false
  },
  {
    "comment": "Our website is amazing! Everyone is easy to communicate with and put together the perfect site for our needs. Not being technically savvy, they walked us through what we should have on our site and made it effortless.",
    "author": "Bob Dude",
    "id": "author5",
    "img": "testimonials/testimonial-photos-5.jpg",
    "altText": "Testimonial 5",
    "isActive": false
  }
]
